{
  "permits": [{"date": "2017-05-04", "type": "Serve food outside"}, {"date": "2017-05-20", "type": "Open till 02.00AM"}],
  "trade": "Metro Falcon Group",
  "lon": 55.276541,
  "fines": [{"date": "2018-05-04", "amount": 2000, "reason": "No Arabic text on signboard"}],
  "owner": "Abdullah",
  "category": "Restaurant",
  "license_number": "00001",
  "expire_date": "2018-10-07",
  "lat": 25.212072
}
