{
  "project_info": {
    "project_number": "537319342813",
    "firebase_url": "https://iotproject-d324f.firebaseio.com",
    "project_id": "iotproject-d324f",
    "storage_bucket": "iotproject-d324f.appspot.com"
  },
  "client": [
    {
      "client_info": {
        "mobilesdk_app_id": "1:537319342813:android:c111d75756007df7",
        "android_client_info": {
          "package_name": "com.iotandroidapplication.dat.iotandroidapplication"
        }
      },
      "oauth_client": [
        {
          "client_id": "537319342813-gtlrqjpdo9fq5eb00o51e4uomdc2gkul.apps.googleusercontent.com",
          "client_type": 1,
          "android_info": {
            "package_name": "com.iotandroidapplication.dat.iotandroidapplication",
            "certificate_hash": "57ee2830ff962e65d14757a5813e328dec039974"
          }
        },
        {
          "client_id": "537319342813-ucli72bs0tlbtp46g65d9991eatg64ls.apps.googleusercontent.com",
          "client_type": 3
        }
      ],
      "api_key": [
        {
          "current_key": "AIzaSyDm5gWeB0_865vLZvfk8vszaWH08a26jRE"
        }
      ],
      "services": {
        "analytics_service": {
          "status": 1
        },
        "appinvite_service": {
          "status": 2,
          "other_platform_oauth_client": [
            {
              "client_id": "537319342813-ucli72bs0tlbtp46g65d9991eatg64ls.apps.googleusercontent.com",
              "client_type": 3
            }
          ]
        },
        "ads_service": {
          "status": 2
        }
      }
    },
    {
      "client_info": {
        "mobilesdk_app_id": "1:537319342813:android:6e038141c9bd20e5",
        "android_client_info": {
          "package_name": "com.sampathsampel.babylon.androidbeaconproject"
        }
      },
      "oauth_client": [
        {
          "client_id": "537319342813-bl6bttf650djbomsm58suc5v2mephb5c.apps.googleusercontent.com",
          "client_type": 1,
          "android_info": {
            "package_name": "com.sampathsampel.babylon.androidbeaconproject",
            "certificate_hash": "57ee2830ff962e65d14757a5813e328dec039974"
          }
        },
        {
          "client_id": "537319342813-ucli72bs0tlbtp46g65d9991eatg64ls.apps.googleusercontent.com",
          "client_type": 3
        }
      ],
      "api_key": [
        {
          "current_key": "AIzaSyDm5gWeB0_865vLZvfk8vszaWH08a26jRE"
        }
      ],
      "services": {
        "analytics_service": {
          "status": 1
        },
        "appinvite_service": {
          "status": 2,
          "other_platform_oauth_client": [
            {
              "client_id": "537319342813-ucli72bs0tlbtp46g65d9991eatg64ls.apps.googleusercontent.com",
              "client_type": 3
            }
          ]
        },
        "ads_service": {
          "status": 2
        }
      }
    },
    {
      "client_info": {
        "mobilesdk_app_id": "1:537319342813:android:e125dc7d51487672",
        "android_client_info": {
          "package_name": "info.androidhive.IOTnotification"
        }
      },
      "oauth_client": [
        {
          "client_id": "537319342813-g5p4skhmu94mjt7c9ehr3jforsj198gn.apps.googleusercontent.com",
          "client_type": 1,
          "android_info": {
            "package_name": "info.androidhive.IOTnotification",
            "certificate_hash": "57ee2830ff962e65d14757a5813e328dec039974"
          }
        },
        {
          "client_id": "537319342813-ucli72bs0tlbtp46g65d9991eatg64ls.apps.googleusercontent.com",
          "client_type": 3
        }
      ],
      "api_key": [
        {
          "current_key": "AIzaSyDm5gWeB0_865vLZvfk8vszaWH08a26jRE"
        }
      ],
      "services": {
        "analytics_service": {
          "status": 1
        },
        "appinvite_service": {
          "status": 2,
          "other_platform_oauth_client": [
            {
              "client_id": "537319342813-ucli72bs0tlbtp46g65d9991eatg64ls.apps.googleusercontent.com",
              "client_type": 3
            }
          ]
        },
        "ads_service": {
          "status": 2
        }
      }
    }
  ],
  "configuration_version": "1"
}